{
    "fluentMethods": true,
    "relationships": [
        {
            "relationshipType": "one-to-many",
            "relationshipName": "denuncia",
            "otherEntityName": "denuncia",
            "otherEntityRelationshipName": "infosoli"
        }
    ],
    "fields": [
        {
            "fieldName": "vInfosoli",
            "fieldType": "String",
            "fieldValidateRules": [
                "required",
                "maxlength"
            ],
            "fieldValidateRulesMaxlength": 300
        },
        {
            "fieldName": "tFecsoli",
            "fieldType": "Instant",
            "fieldValidateRules": [
                "required"
            ]
        },
        {
            "fieldName": "vRespuesta",
            "fieldType": "String",
            "fieldValidateRules": [
                "maxlength"
            ],
            "fieldValidateRulesMaxlength": 300
        },
        {
            "fieldName": "tFecresp",
            "fieldType": "Instant"
        },
        {
            "fieldName": "vUsuareg",
            "fieldType": "String",
            "fieldValidateRules": [
                "required",
                "maxlength"
            ],
            "fieldValidateRulesMaxlength": 20
        },
        {
            "fieldName": "tFecreg",
            "fieldType": "Instant",
            "fieldValidateRules": [
                "required"
            ]
        },
        {
            "fieldName": "nFlgactivo",
            "fieldType": "Boolean"
        },
        {
            "fieldName": "nSedereg",
            "fieldType": "Integer",
            "fieldValidateRules": [
                "required"
            ]
        },
        {
            "fieldName": "vUsuaupd",
            "fieldType": "String",
            "fieldValidateRules": [
                "maxlength"
            ],
            "fieldValidateRulesMaxlength": 20
        },
        {
            "fieldName": "tFecupd",
            "fieldType": "Instant"
        },
        {
            "fieldName": "nSedeupd",
            "fieldType": "Integer"
        }
    ],
    "changelogDate": "20171130152958",
    "entityTableName": "infosoli",
    "dto": "no",
    "pagination": "no",
    "service": "no"
}