{
    "fluentMethods": true,
    "relationships": [
        {
            "relationshipName": "empleador",
            "otherEntityName": "empleador",
            "relationshipType": "many-to-one",
            "otherEntityField": "id"
        },
        {
            "relationshipName": "pasegl",
            "otherEntityName": "pasegl",
            "relationshipType": "many-to-one",
            "otherEntityField": "id"
        },
        {
            "relationshipName": "trabajador",
            "otherEntityName": "trabajador",
            "relationshipType": "many-to-one",
            "otherEntityField": "id"
        },
        {
            "relationshipType": "one-to-many",
            "relationshipName": "legtipdoc",
            "otherEntityName": "legtipdoc",
            "otherEntityRelationshipName": "legajo"
        },
        {
            "relationshipType": "one-to-many",
            "relationshipName": "atencionpj",
            "otherEntityName": "atencionpj",
            "otherEntityRelationshipName": "legajo"
        },
        {
            "relationshipType": "one-to-many",
            "relationshipName": "legajoasig",
            "otherEntityName": "legajoasig",
            "otherEntityRelationshipName": "legajo"
        },
        {
            "relationshipName": "materia",
            "otherEntityName": "materia",
            "relationshipType": "many-to-one",
            "otherEntityField": "id"
        }
    ],
    "fields": [
        {
            "fieldName": "vCodreg",
            "fieldType": "String",
            "fieldValidateRules": [
                "required",
                "maxlength"
            ],
            "fieldValidateRulesMaxlength": 2
        },
        {
            "fieldName": "vCodzon",
            "fieldType": "String",
            "fieldValidateRules": [
                "required",
                "maxlength"
            ],
            "fieldValidateRulesMaxlength": 2
        },
        {
            "fieldName": "vNumexp",
            "fieldType": "String",
            "fieldValidateRules": [
                "required",
                "maxlength"
            ],
            "fieldValidateRulesMaxlength": 30
        },
        {
            "fieldName": "vNomjuzg",
            "fieldType": "String",
            "fieldValidateRules": [
                "required",
                "maxlength"
            ],
            "fieldValidateRulesMaxlength": 50
        },
        {
            "fieldName": "vNomjuez",
            "fieldType": "String",
            "fieldValidateRules": [
                "required",
                "maxlength"
            ],
            "fieldValidateRulesMaxlength": 50
        },
        {
            "fieldName": "vEstleg",
            "fieldType": "String",
            "fieldValidateRules": [
                "required",
                "maxlength"
            ],
            "fieldValidateRulesMaxlength": 1
        },
        {
            "fieldName": "dFecconc",
            "fieldType": "LocalDate"
        },
        {
            "fieldName": "vCodusureg",
            "fieldType": "String",
            "fieldValidateRules": [
                "required",
                "maxlength"
            ],
            "fieldValidateRulesMaxlength": 15
        },
        {
            "fieldName": "vHostreg",
            "fieldType": "String",
            "fieldValidateRules": [
                "required",
                "maxlength"
            ],
            "fieldValidateRulesMaxlength": 30
        },
        {
            "fieldName": "vCodusumod",
            "fieldType": "String",
            "fieldValidateRules": [
                "required",
                "maxlength"
            ],
            "fieldValidateRulesMaxlength": 15
        },
        {
            "fieldName": "dFecmod",
            "fieldType": "LocalDate"
        },
        {
            "fieldName": "vHostmod",
            "fieldType": "String",
            "fieldValidateRules": [
                "required",
                "maxlength"
            ],
            "fieldValidateRulesMaxlength": 30
        },
        {
            "fieldName": "dFecexp",
            "fieldType": "LocalDate"
        },
        {
            "fieldName": "vNumleg",
            "fieldType": "String",
            "fieldValidateRules": [
                "required",
                "maxlength"
            ],
            "fieldValidateRulesMaxlength": 6
        },
        {
            "fieldName": "nCodsuc",
            "fieldType": "Integer",
            "fieldValidateRules": [
                "required"
            ]
        },
        {
            "fieldName": "vFlginst",
            "fieldType": "String",
            "fieldValidateRules": [
                "required",
                "maxlength"
            ],
            "fieldValidateRulesMaxlength": 1
        },
        {
            "fieldName": "vNumexpda",
            "fieldType": "String",
            "fieldValidateRules": [
                "required",
                "maxlength"
            ],
            "fieldValidateRulesMaxlength": 30
        },
        {
            "fieldName": "dFecexpda",
            "fieldType": "LocalDate"
        },
        {
            "fieldName": "vNomjuzda",
            "fieldType": "String",
            "fieldValidateRules": [
                "required",
                "maxlength"
            ],
            "fieldValidateRulesMaxlength": 50
        },
        {
            "fieldName": "vNomjuezda",
            "fieldType": "String",
            "fieldValidateRules": [
                "required",
                "maxlength"
            ],
            "fieldValidateRulesMaxlength": 50
        },
        {
            "fieldName": "vCodlegrig",
            "fieldType": "String",
            "fieldValidateRules": [
                "required",
                "maxlength"
            ],
            "fieldValidateRulesMaxlength": 6
        },
        {
            "fieldName": "vTiporig",
            "fieldType": "String",
            "fieldValidateRules": [
                "required",
                "maxlength"
            ],
            "fieldValidateRulesMaxlength": 1
        },
        {
            "fieldName": "vFlgarch",
            "fieldType": "String",
            "fieldValidateRules": [
                "required",
                "maxlength"
            ],
            "fieldValidateRulesMaxlength": 1
        },
        {
            "fieldName": "vFlgcaut",
            "fieldType": "String",
            "fieldValidateRules": [
                "required",
                "maxlength"
            ],
            "fieldValidateRulesMaxlength": 1
        },
        {
            "fieldName": "vFlganul",
            "fieldType": "String",
            "fieldValidateRules": [
                "required",
                "maxlength"
            ],
            "fieldValidateRulesMaxlength": 1
        },
        {
            "fieldName": "vCodloc",
            "fieldType": "String",
            "fieldValidateRules": [
                "required",
                "maxlength"
            ],
            "fieldValidateRulesMaxlength": 6
        },
        {
            "fieldName": "nUsuareg",
            "fieldType": "Integer",
            "fieldValidateRules": [
                "required"
            ]
        },
        {
            "fieldName": "tFecreg",
            "fieldType": "Instant",
            "fieldValidateRules": [
                "required"
            ]
        },
        {
            "fieldName": "nFlgactivo",
            "fieldType": "Boolean",
            "fieldValidateRules": [
                "required"
            ]
        },
        {
            "fieldName": "nSedereg",
            "fieldType": "Integer",
            "fieldValidateRules": [
                "required"
            ]
        },
        {
            "fieldName": "nUsuaupd",
            "fieldType": "Integer"
        },
        {
            "fieldName": "tFecupd",
            "fieldType": "Instant"
        },
        {
            "fieldName": "nSedeupd",
            "fieldType": "Integer"
        }
    ],
    "changelogDate": "20171130153004",
    "entityTableName": "legajo",
    "dto": "no",
    "pagination": "no",
    "service": "no"
}