{
    "fluentMethods": true,
    "relationships": [
        {
            "relationshipType": "one-to-many",
            "relationshipName": "legajo",
            "otherEntityName": "legajo",
            "otherEntityRelationshipName": "materia"
        }
    ],
    "fields": [
        {
            "fieldName": "vDesmat",
            "fieldType": "String",
            "fieldValidateRules": [
                "required",
                "maxlength"
            ],
            "fieldValidateRulesMaxlength": 50
        },
        {
            "fieldName": "vAbrmat",
            "fieldType": "String",
            "fieldValidateRules": [
                "required",
                "maxlength"
            ],
            "fieldValidateRulesMaxlength": 10
        },
        {
            "fieldName": "nUsuareg",
            "fieldType": "Integer",
            "fieldValidateRules": [
                "required"
            ]
        },
        {
            "fieldName": "tFecreg",
            "fieldType": "Instant",
            "fieldValidateRules": [
                "required"
            ]
        },
        {
            "fieldName": "nFlgactivo",
            "fieldType": "Boolean",
            "fieldValidateRules": [
                "required"
            ]
        },
        {
            "fieldName": "nSedereg",
            "fieldType": "Integer",
            "fieldValidateRules": [
                "required"
            ]
        },
        {
            "fieldName": "nUsuaupd",
            "fieldType": "Integer"
        },
        {
            "fieldName": "tFecupd",
            "fieldType": "Instant"
        },
        {
            "fieldName": "nSedeupd",
            "fieldType": "Integer"
        }
    ],
    "changelogDate": "20171130153009",
    "entityTableName": "materia",
    "dto": "no",
    "pagination": "no",
    "service": "no"
}