{
    "fluentMethods": true,
    "relationships": [
        {
            "relationshipName": "motate",
            "otherEntityName": "motate",
            "relationshipType": "many-to-one",
            "otherEntityField": "id"
        },
        {
            "relationshipName": "oficina",
            "otherEntityName": "oficina",
            "relationshipType": "many-to-one",
            "otherEntityField": "id"
        },
        {
            "relationshipType": "one-to-many",
            "relationshipName": "motateselec",
            "otherEntityName": "motateselec",
            "otherEntityRelationshipName": "motatenofic"
        },
        {
            "relationshipType": "one-to-many",
            "relationshipName": "motivPase",
            "otherEntityName": "motivpase",
            "otherEntityRelationshipName": "motatenofic"
        }
    ],
    "fields": [
        {
            "fieldName": "nUsuareg",
            "javadoc": "CODIGO DEL USUARIO QUE REGISTRA.",
            "fieldType": "Integer",
            "fieldValidateRules": [
                "required"
            ]
        },
        {
            "fieldName": "tFecreg",
            "javadoc": "FECHA Y HORA DEL REGISTRO.",
            "fieldType": "Instant",
            "fieldValidateRules": [
                "required"
            ]
        },
        {
            "fieldName": "nFlgactivo",
            "javadoc": "ESTADO ACTIVO DEL REGISTRO (1=ACTIVO, 0=INACTIVO)",
            "fieldType": "Boolean",
            "fieldValidateRules": [
                "required"
            ]
        },
        {
            "fieldName": "nSedereg",
            "javadoc": "CODIGO DE LA SEDE DONDE SE REGISTRA.",
            "fieldType": "Integer",
            "fieldValidateRules": [
                "required"
            ]
        },
        {
            "fieldName": "nUsuaupd",
            "javadoc": "CODIGO DEL USUARIO QUE MODIFICA EL REGISTRO.",
            "fieldType": "Integer"
        },
        {
            "fieldName": "tFecupd",
            "javadoc": "CODIGO DEL USUARIO QUE MODIFICA EL REGISTRO.",
            "fieldType": "Instant"
        },
        {
            "fieldName": "nSedeupd",
            "javadoc": "CODIGO DE LA SEDE DONDE SE MODIFICA EL REGISTRO.",
            "fieldType": "Integer"
        }
    ],
    "changelogDate": "20171130152916",
    "javadoc": "LISTA DE LOS MOTIVOS DE ATENCION POR CADA OFICINA",
    "entityTableName": "motatenofic",
    "dto": "no",
    "pagination": "no",
    "service": "no"
}