{
    "fluentMethods": true,
    "relationships": [
        {
            "relationshipName": "cartrab",
            "otherEntityName": "cartrab",
            "relationshipType": "many-to-one",
            "otherEntityField": "id"
        },
        {
            "relationshipName": "pernatural",
            "otherEntityName": "pernatural",
            "relationshipType": "many-to-one",
            "otherEntityField": "id"
        },
        {
            "relationshipType": "one-to-many",
            "relationshipName": "legajo",
            "otherEntityName": "legajo",
            "otherEntityRelationshipName": "trabajador"
        },
        {
            "relationshipType": "one-to-many",
            "relationshipName": "falsoexp",
            "otherEntityName": "falsoexp",
            "otherEntityRelationshipName": "trabajador"
        },
        {
            "relationshipType": "one-to-many",
            "relationshipName": "expediente",
            "otherEntityName": "expediente",
            "otherEntityRelationshipName": "trabajador"
        },
        {
            "relationshipType": "one-to-many",
            "relationshipName": "datlab",
            "otherEntityName": "datlab",
            "otherEntityRelationshipName": "trabajador"
        },
        {
            "relationshipType": "one-to-many",
            "relationshipName": "atencion",
            "otherEntityName": "atencion",
            "otherEntityRelationshipName": "trabajador"
        },
        {
            "relationshipType": "one-to-many",
            "relationshipName": "sucesor",
            "otherEntityName": "sucesor",
            "otherEntityRelationshipName": "trabajador"
        }
    ],
    "fields": [
        {
            "fieldName": "nFlgsuces",
            "javadoc": "BANDERA QUE INDICA SI TIENE UN SUCESOR (CON SUCESOR=1, SIN SUCESOR=0)",
            "fieldType": "Boolean",
            "fieldValidateRules": [
                "required"
            ]
        },
        {
            "fieldName": "nUsuareg",
            "javadoc": "CODIGO DEL USUARIO QUE REGISTRA.",
            "fieldType": "Integer",
            "fieldValidateRules": [
                "required"
            ]
        },
        {
            "fieldName": "tFecreg",
            "javadoc": "FECHA Y HORA DEL REGISTRO.",
            "fieldType": "Instant",
            "fieldValidateRules": [
                "required"
            ]
        },
        {
            "fieldName": "nFlgactivo",
            "javadoc": "ESTADO ACTIVO DEL REGISTRO (1=ACTIVO, 0=INACTIVO)",
            "fieldType": "Boolean",
            "fieldValidateRules": [
                "required"
            ]
        },
        {
            "fieldName": "nSedereg",
            "javadoc": "CODIGO DE LA SEDE DONDE SE REGISTRA.",
            "fieldType": "Integer",
            "fieldValidateRules": [
                "required"
            ]
        },
        {
            "fieldName": "nUsuaupd",
            "javadoc": "CODIGO DEL USUARIO QUE MODIFICA EL REGISTRO.",
            "fieldType": "Integer"
        },
        {
            "fieldName": "tFecupd",
            "javadoc": "CODIGO DEL USUARIO QUE MODIFICA EL REGISTRO.",
            "fieldType": "Instant"
        },
        {
            "fieldName": "nSedeupd",
            "javadoc": "CODIGO DE LA SEDE DONDE SE MODIFICA EL REGISTRO.",
            "fieldType": "Integer"
        }
    ],
    "changelogDate": "20171130152915",
    "javadoc": "LISTA DE TRABAJADORES",
    "entityTableName": "trabajador",
    "dto": "no",
    "pagination": "no",
    "service": "no"
}